<?xml version="1.0" encoding="UTF-8"?>
<!DOCTYPE X3D PUBLIC "ISO//Web3D//DTD X3D 3.0//EN" "http://www.web3d.org/specifications/x3d-3.0.dtd">
<X3D profile='Immersive' >
	<head>
		<meta name='copyright' content='Copyright (c) AnyLogic North America 2010'/>
	</head>
	<Scene>
		<Transform translation='0 7.2 0' scale='250 250 250'>
			<Shape DEF='polymsh_detached_AUTO_Shape' containerField='children'>
				<Appearance DEF='Material__1__Surf' containerField='appearance'>
					<Material containerField='material' ambientIntensity='0.7' shininess='0.156' diffuseColor='.7856 .7856 .7856' specularColor='.2 .2 .2'/>
				</Appearance>
				<IndexedFaceSet DEF='polymsh_detached_AUTO_Shape_Geo' containerField='geometry' creaseAngle='1.047' coordIndex=' 24 25 26 -1 24 26 27 -1 25 28 29 -1 25 29 26 -1 28 30 31 -1 28 31 29 -1 29 31 32 -1 29 32 33 -1 33 34 26 -1 33 26 29 -1 27 26 34 -1 27 34 35 -1 35 34 36 -1 35 36 37 -1 34 33 38 -1 34 38 36 -1 33 32 39 -1 33 39 38 -1 40 41 42 -1 40 42 43 -1 43 42 44 -1 43 44 45 -1 45 44 46 -1 45 46 47 -1 46 48 47 -1 49 50 51 -1 49 51 52 -1 49 52 53 -1 49 53 54 -1 54 53 55 -1 54 55 56 -1 57 50 49 -1 57 49 58 -1 59 58 49 -1 59 49 54 -1 59 54 56 -1 60 61 62 -1 60 62 63 -1 63 62 64 -1 63 64 65 -1 66 64 62 -1 66 62 67 -1 61 68 67 -1 61 67 62 -1 64 66 69 -1 64 69 70 -1 65 64 70 -1 65 70 71 -1 72 73 74 -1 72 74 75 -1 74 73 76 -1 74 76 77 -1 78 72 75 -1 79 80 76 -1 79 76 73 -1 72 81 79 -1 72 79 73 -1 78 82 81 -1 78 81 72 -1 83 84 85 -1 83 85 86 -1 86 85 87 -1 86 87 88 -1 88 87 89 -1 88 89 90 -1 83 91 84 -1 177 174 172 -1 177 173 175 -1 177 176 173 -1 177 172 176 -1 180 179 178 -1 182 181 178 -1 181 183 178 -1 183 180 178 -1 184 185 186 -1 184 186 187 -1 185 188 189 -1 185 189 186 -1 189 188 190 -1 189 190 191 -1 192 193 194 -1 192 194 195 -1 196 197 198 -1 196 198 199 -1 193 199 198 -1 193 198 194 -1 494 495 496 -1 494 496 497 -1 527 524 522 -1 527 523 525 -1 527 526 523 -1 527 522 526 -1 530 529 528 -1 532 531 528 -1 531 533 528 -1 533 530 528 -1'>
					<Coordinate DEF='polymsh_Pts' containerField='coord' point=' .03046 .00993 .03387 .03365 .01001 .03202 .03259 .01139 .03168 .03021 .0113 .03242 .03946 .01035 .02919 .03862 .01348 .02844 .03021 .00986 .02915 .03239 .01384 .03057 .03895 .01365 .02703 .03259 .01139 .02924 .03979 .01038 .02729 .03257 .01448 .02888 -.03046 .00993 .03387 -.03365 .01001 .03202 -.03259 .01139 .03168 -.03021 .0113 .03242 -.03946 .01035 .02919 -.03862 .01348 .02844 -.03239 .01384 .03057 -.03021 .00986 .02915 -.03979 .01038 .02729 -.03895 .01365 .02703 -.03257 .01448 .02888 -.03259 .01139 .02924 .02816 .00925 .04081 .0276 .01282 .03336 .01536 .0136 .03675 .01497 .00987 .0458 .02595 .01763 .02509 .0141 .01834 .02717 .02323 .02326 .01324 .01224 .02423 .01501 -.01224 .02423 .01501 -.0141 .01834 .02717 -.01536 .0136 .03675 -.01497 .00987 .0458 -.0276 .01282 .03336 -.02816 .00925 .04081 -.02595 .01763 .02509 -.02323 .02326 .01324 .02341 .02659 -.0104 .02383 .02557 .00205 .0253 .0229 .01235 .02719 .02156 -.00929 .02827 .01703 .02365 .03025 .01513 -.00738 .03023 .01193 .0316 .03261 .00971 -.00613 .03284 .00731 .03647 .0275 .01979 -.03988 .02424 .02454 -.03585 .02331 .02679 -.01416 .02712 .02116 -.01347 .03021 .01481 -.01253 .03052 .01399 -.04313 .03259 .00998 -.01174 .03159 .01075 -.04464 .0255 .02124 -.04917 .02701 .01666 -.05878 .02978 .0116 -.06287 .02268 .02282 -.04961 .02408 .01827 -.06373 .01146 .01939 -.06506 .01036 .02434 -.05028 -.01146 .01939 -.06506 -.01036 .02434 -.05028 -.01232 .0139 -.07636 .01232 .0139 -.07636 .02446 .01351 -.0741 -.02446 .01351 -.0741 -.02408 .01827 -.06373 -.02268 .02282 -.04961 -.03052 .01399 -.04313 -.0275 .01979 -.03988 -.02701 .01666 -.05878 -.02978 .0116 -.06287 -.02424 .02454 -.03585 -.0255 .02124 -.04917 -.03159 .01075 -.04464 -.02712 .02116 -.01347 -.02331 .02679 -.01416 -.03021 .01481 -.01253 -.03259 .00998 -.01174 -.03261 .00971 -.00613 -.03023 .01193 .0316 -.02827 .01703 .02365 -.03025 .01513 -.00738 -.0253 .0229 .01235 -.02719 .02156 -.00929 -.02383 .02557 .00205 -.02341 .02659 -.0104 -.03284 .00731 .03647 .02528 -.01907 .05763 .03685 -.01247 .04872 .03685 -.01725 .04872 .03685 -.00125 .05398 .02528 -.00125 .05763 .03685 -.00125 .06127 .03685 -.02138 .05111 .03685 -.0049 .06759 .02528 -.00805 .06941 .03685 -.01121 .07124 .02528 -.01851 .07124 .03685 -.01851 .07124 .02528 -.02482 .06759 .03685 -.02482 .06759 .02528 -.02847 .06127 .03685 -.02847 .06127 .02528 -.02847 .05398 .03685 -.02847 .05398 .02528 -.02482 .04766 .03685 -.02482 .04766 .02528 -.01851 .04402 .03685 -.01851 .04402 .03685 -.02376 .05524 .03685 -.01121 .04402 .02528 -.00805 .04584 .03685 -.0049 .04766 .03685 -.00595 .06001 .03685 -.00595 .05524 .03685 -.00834 .05111 .03685 -.00834 .06415 .03685 -.01247 .06653 .03685 -.01725 .06653 .03685 -.02138 .06415 .03685 -.02376 .06001 -.03685 -.0049 .04766 -.03685 -.00125 .05398 -.03685 -.00595 .05524 -.03685 -.00834 .05111 -.02528 -.00125 .05763 -.03685 -.00125 .06127 -.03685 -.00595 .06001 -.02528 -.00805 .04584 -.02528 -.00805 .06941 -.03685 -.0049 .06759 -.03685 -.00834 .06415 -.03685 -.01121 .04402 -.03685 -.01247 .04872 -.03685 -.01121 .07124 -.03685 -.01247 .06653 -.02528 -.01851 .07124 -.03685 -.01851 .07124 -.03685 -.01725 .06653 -.02528 -.02482 .06759 -.02528 -.01907 .05763 -.03685 -.02482 .06759 -.03685 -.02138 .06415 -.02528 -.02847 .06127 -.03685 -.02847 .06127 -.03685 -.02376 .06001 -.02528 -.02847 .05398 -.03685 -.02847 .05398 -.03685 -.02376 .05524 -.02528 -.02482 .04766 -.03685 -.02482 .04766 -.03685 -.02138 .05111 -.02528 -.01851 .04402 -.03685 -.01851 .04402 -.03685 -.01725 .04872 .00843 -.00054 .09213 -.00843 -.00054 .09213 -.01412 -.00076 .09129 -.01343 -.0055 .09419 -.01185 -.01281 .09652 .01009 -.02249 .09448 .01412 -.00076 .09129 .01185 -.01281 .09652 .01343 -.0055 .09419 -.01009 -.01803 .09623 -.01009 -.02249 .09448 .01009 -.01803 .09623 .03651 -.02501 .05157 .03651 -.0047 .05157 .03651 -.02501 .06329 .03651 -.0047 .06329 .03651 -.01486 .0457 .03651 -.01486 .06915 -.03651 -.01486 .06915 -.03651 -.02501 .06329 -.03651 -.02501 .05157 -.03651 -.0047 .05157 -.03651 -.0047 .06329 -.03651 -.01486 .0457 .01723 -.00586 .09294 .02471 -.006 .0894 .02466 .00078 .08482 .0196 .00082 .08792 .03047 -.00543 .08354 .02903 .00055 .08014 .0333 -.00535 .07812 .03243 -.00066 .07446 -.0196 .00082 .08792 -.02466 .00078 .08482 -.02471 -.006 .0894 -.01723 -.00586 .09294 -.03243 -.00066 .07446 -.0333 -.00535 .07812 -.03047 -.00543 .08354 -.02903 .00055 .08014 .03157 .00788 -.08161 .02215 .00889 -.09199 .01966 -.00327 -.095 .02751 .00864 -.08898 .03273 -.00428 -.08537 .02797 -.00393 -.09097 -.02797 -.00393 -.09097 -.02751 .00864 -.08898 -.03157 .00788 -.08161 -.03273 -.00428 -.08537 -.01966 -.00327 -.095 -.02215 .00889 -.09199 .0196 .00082 .08792 .02466 .00078 .08482 .02456 .00261 .08286 .01052 .00161 -.09374 .02903 .00055 .08014 -.02751 .00864 -.08898 -.02719 .02156 -.00929 .02879 .00228 .07847 -.02712 .02116 -.01347 -.01036 .02434 -.05028 -.03025 .01513 -.00738 -.01159 .00101 -.09505 .03119 .00603 .06034 .01939 -.00537 -.09652 .02717 .00694 .06206 .03021 .01481 -.01253 .03284 .00731 .03647 .01328 .00896 -.09328 .02816 .00925 .04081 -.01328 .00896 -.09328 .00923 .00287 .08716 .00846 .00126 .09088 -.01497 .00987 .0458 -.00981 .02789 -.02972 -.00963 -.01474 -.09583 .00843 -.00054 .09213 .01327 .00677 .06681 .01497 .00987 .0458 .03261 .00971 -.00613 .03259 .00998 -.01174 .02215 .00889 -.09199 .03644 -.00613 -.0069 .02719 .02156 -.00929 .02341 .02659 -.0104 .01723 -.00586 .09294 .02471 -.006 .0894 .03047 -.00543 .08354 -.03021 .01481 -.01253 .0333 -.00535 .07812 .03243 -.00066 .07446 .01412 -.00076 .09129 .02587 -.0162 -.09106 .02711 -.00566 -.09348 .01185 -.01281 .09652 .01929 -.01268 .09361 .02799 -.01232 .08707 .00963 -.01474 -.09583 .03351 -.01223 .07878 .03399 -.02213 .07188 .01611 -.01774 .09476 .02713 -.01761 .08692 -.01939 -.00537 -.09652 .03318 -.01772 .07861 .01966 -.00327 -.095 .03241 -.02218 .07701 .03159 .01075 -.04464 .03073 -.01768 -.08464 .02978 .0116 -.06287 .01009 -.01803 .09623 .02797 -.00393 -.09097 .01232 .0139 -.07636 .02712 .02116 -.01347 -.0101 .02847 -.01322 .03273 -.00428 -.08537 .02751 .00864 -.08898 .03157 .00788 -.08161 .02737 .01067 -.0863 .02313 .01186 -.08922 .02446 .01351 -.0741 .01553 -.0222 .09341 -.00843 -.00054 .09213 .02408 .01827 -.06373 .02701 .01666 -.05878 .02268 .02282 -.04961 .0255 .02124 -.04917 .02222 .02634 -.03271 .02424 .02454 -.03585 .02138 .02739 -.01306 .02331 .02679 -.01416 .02175 .02614 .00226 .02383 .02557 .00205 .02323 .02326 .01324 .0253 .0229 .01235 .03023 .01193 .0316 .02762 .01282 .03334 .02827 .01703 .02365 .02595 .01763 .02509 .01036 .02434 -.05028 .00981 .02789 -.02972 -.00846 .00126 .09088 -.00923 .00287 .08716 .0101 .02847 -.01322 -.01327 .00677 .06681 .01107 .02714 .00312 -.01198 .00807 -.0923 .01224 .02423 .01501 -.02686 -.02207 .08578 .03289 -.01966 -.07239 .01159 .00101 -.09505 .03477 -.01766 .07386 .03524 -.01217 .07317 .03579 -.00586 .0704 .03597 -.00248 .06667 .01343 -.0055 .09419 .03621 .00015 .05689 .03636 -.00297 .04752 .03614 -.00943 .04204 .03344 -.02165 .04057 .03278 -.00608 -.08578 .02693 -.02207 .08578 .035 -.01416 -.07173 .0345 -.02063 -.00698 .0348 -.02052 -.03911 .01009 -.02249 .09448 .03025 .01513 -.00738 .03679 -.00277 -.04596 .03666 .00033 -.05665 .03632 -.00353 -.06628 .01198 .00807 -.0923 .03596 -.00829 -.07019 -.0196 .00082 .08792 -.02466 .00078 .08482 -.02456 .00261 .08286 -.02903 .00055 .08014 -.02879 .00228 .07847 -.02791 -.01232 .08707 -.02706 -.01761 .08692 -.03318 -.01772 .07861 -.03351 -.01223 .07878 -.03243 -.00066 .07446 -.03597 -.00248 .06667 -.03621 .00015 .05689 -.03119 .00603 .06034 -.02717 .00694 .06206 -.03241 -.02218 .07701 -.01224 .02423 .01501 -.03073 -.01768 -.08464 -.02587 -.0162 -.09106 -.02711 -.00566 -.09348 -.03278 -.00608 -.08578 -.01185 -.01281 .09652 -.01723 -.00586 .09294 -.01343 -.0055 .09419 -.03284 .00731 .03647 -.02816 .00925 .04081 -.02175 .02614 .00226 -.02383 .02557 .00205 -.02341 .02659 -.0104 -.02138 .02739 -.01306 -.01107 .02714 .00312 -.02595 .01763 .02509 -.02827 .01703 .02365 -.01052 .00161 -.09374 -.02762 .01282 .03334 -.02797 -.00393 -.09097 -.03273 -.00428 -.08537 -.03023 .01193 .0316 -.03679 -.00277 -.04596 -.03159 .01075 -.04464 -.03259 .00998 -.01174 -.03644 -.00613 -.0069 -.03614 -.00943 .04204 -.03261 .00971 -.00613 -.03344 -.02165 .04057 -.0345 -.02063 -.00698 -.03047 -.00543 .08354 -.0333 -.00535 .07812 -.03636 -.00297 .04752 -.03596 -.00829 -.07019 -.0348 -.02052 -.03911 -.035 -.01416 -.07173 -.0191 -.01268 .09361 -.02471 -.006 .0894 -.03579 -.00586 .0704 -.03524 -.01217 .07317 -.03399 -.02213 .07188 -.03477 -.01766 .07386 -.01009 -.01803 .09623 -.01582 -.01774 .09476 -.03289 -.01966 -.07239 -.01412 -.00076 .09129 -.01009 -.02249 .09448 -.01522 -.0222 .09341 -.03666 .00033 -.05665 -.02978 .0116 -.06287 -.03632 -.00353 -.06628 -.03157 .00788 -.08161 -.02215 .00889 -.09199 -.01966 -.00327 -.095 -.02737 .01067 -.0863 -.02313 .01186 -.08922 -.02446 .01351 -.0741 -.01232 .0139 -.07636 -.02408 .01827 -.06373 -.02701 .01666 -.05878 -.02268 .02282 -.04961 -.0255 .02124 -.04917 -.02222 .02634 -.03271 -.02424 .02454 -.03585 -.02331 .02679 -.01416 -.02323 .02326 .01324 -.0253 .0229 .01235 .02528 -.01907 -.05585 .03751 -.01247 -.06476 -.03751 -.01725 -.06476 .03751 -.00125 -.0595 .02528 -.00125 -.05585 .03751 -.00125 -.05221 -.03751 -.01851 -.06946 .03751 -.0049 -.04589 .02528 -.00805 -.04407 .03751 -.01121 -.04224 .02528 -.01851 -.04224 .03751 -.01851 -.04224 .02528 -.02482 -.04589 .03751 -.02482 -.04589 .02528 -.02847 -.05221 .03751 -.02847 -.05221 .02528 -.02847 -.0595 .03751 -.02847 -.0595 .02528 -.02482 -.06582 .03751 -.02482 -.06582 .02528 -.01851 -.06946 .03751 -.01851 -.06946 -.02528 -.01851 -.06946 .03751 -.01121 -.06946 .02528 -.00805 -.06764 .03751 -.0049 -.06582 .03751 -.00595 -.05347 .03751 -.00595 -.05824 .03751 -.00834 -.06237 .03751 -.00834 -.04934 .03751 -.01247 -.04695 .03751 -.01725 -.04695 .03751 -.02138 -.04934 .03751 -.02376 -.05347 .03751 -.02376 -.05824 .03751 -.02138 -.06237 .03751 -.01725 -.06476 -.03751 -.02138 -.06237 -.03751 -.02482 -.06582 -.02528 -.02482 -.06582 -.03751 -.02376 -.05824 -.03751 -.02847 -.0595 -.02528 -.02847 -.0595 -.03751 -.02376 -.05347 -.03751 -.02847 -.05221 -.02528 -.02847 -.05221 -.03751 -.02138 -.04934 -.03751 -.02482 -.04589 -.02528 -.01907 -.05585 -.02528 -.02482 -.04589 -.03751 -.01725 -.04695 -.03751 -.01851 -.04224 -.02528 -.01851 -.04224 -.03751 -.01247 -.04695 -.03751 -.01121 -.04224 -.03751 -.01247 -.06476 -.03751 -.01121 -.06946 -.03751 -.00834 -.04934 -.03751 -.0049 -.04589 -.02528 -.00805 -.04407 -.02528 -.00805 -.06764 -.03751 -.00595 -.05347 -.03751 -.00125 -.05221 -.02528 -.00125 -.05585 -.03751 -.00834 -.06237 -.03751 -.00595 -.05824 -.03751 -.00125 -.0595 -.03751 -.0049 -.06582 .02799 -.01232 .08707 .02713 -.01761 .08692 .03318 -.01772 .07861 .03351 -.01223 .07878 .01611 -.01774 .09476 .01929 -.01268 .09361 -.0191 -.01268 .09361 -.02791 -.01232 .08707 -.02706 -.01761 .08692 -.01582 -.01774 .09476 -.03351 -.01223 .07878 -.03318 -.01772 .07861 .01198 .00807 -.0923 .01052 .00161 -.09374 -.01052 .00161 -.09374 -.01198 .00807 -.0923 -.02587 -.0162 -.09106 -.0345 -.02063 -.00698 -.03344 -.02165 .04057 -.03405 -.02213 .07188 -.0325 -.02218 .07701 -.02654 -.02207 .0858 -.01506 -.0222 .09341 -.00988 -.02249 .09448 .00988 -.02249 .09448 .01506 -.0222 .09341 .02654 -.02207 .0858 .0325 -.02218 .07701 .03405 -.02213 .07188 .03344 -.02165 .04057 .0345 -.02063 -.00698 -.0348 -.02052 -.03911 .0348 -.02052 -.03911 -.03289 -.01966 -.07239 -.00963 -.01474 -.09583 .03289 -.01966 -.07239 .03073 -.01768 -.08464 .02587 -.0162 -.09106 -.03073 -.01768 -.08464 .00963 -.01474 -.09583 .03706 -.02501 -.06191 .03706 -.0047 -.06191 .03706 -.02501 -.05019 .03706 -.0047 -.05019 .03706 -.01486 -.06778 .03706 -.01486 -.04433 -.03706 -.01486 -.04433 -.03706 -.02501 -.05019 -.03706 -.02501 -.06191 -.03706 -.0047 -.06191 -.03706 -.0047 -.05019 -.03706 -.01486 -.06778'/>
				</IndexedFaceSet>
			</Shape>
			<Shape DEF='polymsh_detached2_AUTO_Shape' containerField='children'>
				<Appearance DEF='Material__2__Surf' containerField='appearance'>
					<Material containerField='material' ambientIntensity='0.7' shininess='0.156' diffuseColor='.8 .0776 0' specularColor='.2 .2 .2'/>
				</Appearance>
				<IndexedFaceSet DEF='polymsh_detached2_AUTO_Shape_Geo' containerField='geometry' creaseAngle='1.047' coordIndex=' 205 203 200 -1 204 205 200 -1 202 201 203 -1 202 203 205 -1 208 207 206 -1 208 206 209 -1 207 211 210 -1 206 207 210 -1'>
					<Coordinate containerField='coord' USE='polymsh_Pts'/>
				</IndexedFaceSet>
			</Shape>
			<Shape DEF='polymsh1_Shape' containerField='children'>
				<Appearance DEF='Material__4__Surf' containerField='appearance'>
					<Material containerField='material' ambientIntensity='0.7' shininess='0.156' diffuseColor='.2 .0 .8' specularColor='.2 .2 .2'/>
				</Appearance>
				<IndexedFaceSet DEF='polymsh1_Shape_Geo' containerField='geometry' creaseAngle='1.047' coordIndex=' 0 1 2 -1 0 2 3 -1 1 4 5 -1 1 5 2 -1 5 7 2 -1 0 6 1 -1 4 10 8 -1 4 8 5 -1 5 8 11 -1 5 11 7 -1 3 2 9 -1 3 9 6 -1 2 7 11 -1 2 11 9 -1 11 8 9 -1 9 8 10 -1 9 10 6 -1 10 4 1 -1 10 1 6 -1 15 14 13 -1 15 13 12 -1 14 17 16 -1 14 16 13 -1 14 18 17 -1 13 19 12 -1 17 21 20 -1 17 20 16 -1 18 22 21 -1 18 21 17 -1 19 23 14 -1 19 14 15 -1 23 22 18 -1 23 18 14 -1 23 21 22 -1 19 20 21 -1 19 21 23 -1 19 13 16 -1 19 16 20 -1 212 213 214 -1 213 216 219 -1 213 219 214 -1 367 351 380 -1 251 314 316 -1 219 251 316 -1 219 316 224 -1 238 304 302 -1 238 302 232 -1 226 238 232 -1 226 232 214 -1 268 253 254 -1 268 254 320 -1 219 224 226 -1 219 226 214 -1 255 246 315 -1 224 228 230 -1 224 230 226 -1 291 292 245 -1 291 245 289 -1 212 214 232 -1 212 232 233 -1 232 302 301 -1 232 301 233 -1 229 310 215 -1 229 215 330 -1 254 271 275 -1 254 275 320 -1 305 303 274 -1 305 274 361 -1 226 230 239 -1 226 239 238 -1 327 267 241 -1 327 241 243 -1 228 318 243 -1 228 243 240 -1 318 319 323 -1 318 323 243 -1 279 229 231 -1 279 231 402 -1 265 225 263 -1 265 263 400 -1 248 257 259 -1 248 259 250 -1 237 233 301 -1 237 301 282 -1 216 251 219 -1 310 265 400 -1 310 400 223 -1 307 305 361 -1 307 361 347 -1 316 317 228 -1 316 228 224 -1 331 324 322 -1 255 256 247 -1 255 247 246 -1 256 257 248 -1 256 248 247 -1 318 313 312 -1 318 312 319 -1 260 319 311 -1 255 270 261 -1 255 261 256 -1 350 263 236 -1 350 236 349 -1 319 312 311 -1 309 268 322 -1 323 324 327 -1 323 327 243 -1 243 241 240 -1 212 252 315 -1 212 315 246 -1 261 270 325 -1 261 325 281 -1 327 328 269 -1 327 269 267 -1 328 329 277 -1 328 277 269 -1 329 331 275 -1 329 275 277 -1 310 229 242 -1 310 242 265 -1 314 317 316 -1 277 278 269 -1 278 279 280 -1 278 280 269 -1 279 272 280 -1 269 280 283 -1 269 283 284 -1 283 285 286 -1 283 286 284 -1 285 287 288 -1 285 288 286 -1 287 289 290 -1 287 290 288 -1 289 245 290 -1 291 293 294 -1 291 294 292 -1 230 228 295 -1 230 295 296 -1 295 297 298 -1 295 298 296 -1 297 294 293 -1 297 293 298 -1 285 299 300 -1 285 300 287 -1 258 236 263 -1 258 263 225 -1 300 303 289 -1 300 289 287 -1 310 223 364 -1 310 364 215 -1 289 303 305 -1 289 305 291 -1 272 279 402 -1 272 402 404 -1 291 305 307 -1 291 307 293 -1 330 306 231 -1 330 231 229 -1 311 264 266 -1 311 266 260 -1 262 261 281 -1 262 281 321 -1 264 311 312 -1 264 312 259 -1 259 312 313 -1 259 313 250 -1 313 314 251 -1 313 251 250 -1 239 234 304 -1 239 304 238 -1 233 237 252 -1 233 252 212 -1 254 225 265 -1 254 265 271 -1 322 324 309 -1 327 329 328 -1 317 318 228 -1 240 241 227 -1 240 227 326 -1 326 227 273 -1 326 273 244 -1 322 268 320 -1 322 320 331 -1 317 314 313 -1 317 313 318 -1 242 229 279 -1 245 244 273 -1 245 273 290 -1 329 327 324 -1 329 324 331 -1 277 276 278 -1 264 262 321 -1 264 321 266 -1 276 242 279 -1 276 279 278 -1 253 258 225 -1 253 225 254 -1 303 300 235 -1 303 235 274 -1 331 320 275 -1 300 299 221 -1 300 221 235 -1 334 333 332 -1 334 336 335 -1 334 335 333 -1 401 402 399 -1 401 399 217 -1 343 342 341 -1 344 343 341 -1 344 341 336 -1 334 302 304 -1 334 304 345 -1 351 350 349 -1 351 349 348 -1 334 345 344 -1 334 344 336 -1 354 353 352 -1 345 356 355 -1 345 355 344 -1 360 359 358 -1 360 358 357 -1 301 302 334 -1 301 334 332 -1 306 364 223 -1 306 223 231 -1 351 367 366 -1 351 366 350 -1 304 234 356 -1 304 356 345 -1 372 371 370 -1 372 370 369 -1 374 372 373 -1 374 373 355 -1 372 376 375 -1 372 375 373 -1 378 340 337 -1 378 337 377 -1 336 341 335 -1 344 355 379 -1 344 379 343 -1 382 381 380 -1 353 384 383 -1 353 383 352 -1 384 377 337 -1 384 337 383 -1 375 386 385 -1 375 385 373 -1 388 375 387 -1 383 390 389 -1 383 389 352 -1 346 308 338 -1 346 338 339 -1 388 386 375 -1 382 348 391 -1 372 369 381 -1 372 381 376 -1 374 371 372 -1 353 354 392 -1 353 392 332 -1 394 393 389 -1 394 389 390 -1 370 396 395 -1 370 395 369 -1 396 398 397 -1 396 397 395 -1 398 367 380 -1 398 380 397 -1 400 399 231 -1 400 231 223 -1 343 379 342 -1 396 401 398 -1 396 403 402 -1 396 402 401 -1 403 404 402 -1 406 405 403 -1 406 403 396 -1 406 408 407 -1 406 407 405 -1 408 410 409 -1 408 409 407 -1 410 411 360 -1 410 360 409 -1 411 359 360 -1 358 413 412 -1 358 412 357 -1 365 368 355 -1 365 355 356 -1 365 362 363 -1 365 363 368 -1 362 412 413 -1 362 413 363 -1 409 235 221 -1 409 221 407 -1 409 360 274 -1 409 274 235 -1 357 361 274 -1 357 274 360 -1 412 347 361 -1 412 361 357 -1 387 346 339 -1 387 339 388 -1 308 394 390 -1 308 390 338 -1 340 386 388 -1 340 388 339 -1 378 385 386 -1 378 386 340 -1 378 341 342 -1 378 342 385 -1 332 392 282 -1 332 282 301 -1 366 400 263 -1 366 263 350 -1 391 381 382 -1 395 397 369 -1 355 373 379 -1 222 249 371 -1 222 371 374 -1 218 220 249 -1 218 249 222 -1 380 351 348 -1 380 348 382 -1 373 385 342 -1 373 342 379 -1 402 231 399 -1 411 220 218 -1 411 218 359 -1 380 381 369 -1 380 369 397 -1 401 217 398 -1'>
					<Coordinate containerField='coord' USE='polymsh_Pts'/>
				</IndexedFaceSet>
			</Shape>
			<Shape DEF='polymsh5_Shape' containerField='children'>
				<Appearance DEF='Material__3__Surf' containerField='appearance'>
					<Material containerField='material' ambientIntensity='0.7' shininess='0.156' diffuseColor='.2904 .2904 .2904' specularColor='.2 .2 .2'/>
				</Appearance>
				<IndexedFaceSet DEF='polymsh5_Shape_Geo' containerField='geometry' creaseAngle='1.047' coordIndex=' 117 95 119 -1 117 119 120 -1 96 97 95 -1 95 97 118 -1 95 118 119 -1 116 96 95 -1 116 95 117 -1 96 100 99 -1 96 99 97 -1 97 99 121 -1 97 121 118 -1 115 117 120 -1 115 120 93 -1 100 101 99 -1 99 101 122 -1 99 122 121 -1 116 117 115 -1 100 102 103 -1 100 103 101 -1 101 103 123 -1 101 123 122 -1 104 102 92 -1 102 104 105 -1 102 105 103 -1 103 105 124 -1 103 124 123 -1 106 104 92 -1 104 106 107 -1 104 107 105 -1 105 107 125 -1 105 125 124 -1 108 106 92 -1 106 108 109 -1 106 109 107 -1 107 109 114 -1 107 114 125 -1 110 108 92 -1 108 110 111 -1 108 111 109 -1 109 111 98 -1 109 98 114 -1 112 110 92 -1 110 112 113 -1 110 113 111 -1 111 113 94 -1 111 94 98 -1 113 115 93 -1 113 93 94 -1 112 116 115 -1 112 115 113 -1 129 128 127 -1 129 127 126 -1 127 131 130 -1 128 132 131 -1 128 131 127 -1 126 127 130 -1 126 130 133 -1 131 135 134 -1 131 134 130 -1 132 136 135 -1 132 135 131 -1 138 129 126 -1 138 126 137 -1 135 139 134 -1 136 140 139 -1 136 139 135 -1 137 126 133 -1 139 142 141 -1 139 141 134 -1 140 143 142 -1 140 142 139 -1 145 141 144 -1 142 146 144 -1 142 144 141 -1 143 147 146 -1 143 146 142 -1 145 144 148 -1 146 149 148 -1 146 148 144 -1 147 150 149 -1 147 149 146 -1 145 148 151 -1 149 152 151 -1 149 151 148 -1 150 153 152 -1 150 152 149 -1 145 151 154 -1 152 155 154 -1 152 154 151 -1 153 156 155 -1 153 155 152 -1 145 154 157 -1 155 158 157 -1 155 157 154 -1 156 159 158 -1 156 158 155 -1 159 138 137 -1 159 137 158 -1 158 137 133 -1 158 133 157 -1 164 169 171 -1 164 171 167 -1 169 170 165 -1 169 165 171 -1 163 164 167 -1 163 167 168 -1 168 160 161 -1 168 161 163 -1 162 163 161 -1 166 160 168 -1 439 417 441 -1 439 441 442 -1 418 419 417 -1 417 419 440 -1 417 440 441 -1 438 418 417 -1 438 417 439 -1 418 422 421 -1 418 421 419 -1 419 421 443 -1 419 443 440 -1 437 439 442 -1 437 442 415 -1 422 423 421 -1 421 423 444 -1 421 444 443 -1 470 481 474 -1 422 424 425 -1 422 425 423 -1 423 425 445 -1 423 445 444 -1 426 424 414 -1 424 426 427 -1 424 427 425 -1 425 427 446 -1 425 446 445 -1 428 426 414 -1 426 428 429 -1 426 429 427 -1 427 429 447 -1 427 447 446 -1 430 428 414 -1 428 430 431 -1 428 431 429 -1 429 431 448 -1 429 448 447 -1 432 430 414 -1 430 432 433 -1 430 433 431 -1 431 433 449 -1 431 449 448 -1 434 432 414 -1 432 434 435 -1 432 435 433 -1 433 435 450 -1 433 450 449 -1 416 469 470 -1 416 470 420 -1 434 438 437 -1 434 437 435 -1 435 437 415 -1 435 415 450 -1 438 439 437 -1 420 470 474 -1 420 474 436 -1 451 416 420 -1 451 420 452 -1 452 420 436 -1 452 436 453 -1 462 453 436 -1 454 451 452 -1 454 452 455 -1 455 452 453 -1 455 453 456 -1 462 456 453 -1 457 454 455 -1 457 455 458 -1 458 455 456 -1 458 456 459 -1 462 459 456 -1 460 457 458 -1 460 458 461 -1 461 458 459 -1 461 459 463 -1 462 463 459 -1 464 460 461 -1 464 461 465 -1 465 461 463 -1 465 463 466 -1 462 466 463 -1 467 464 465 -1 467 465 468 -1 468 465 466 -1 468 466 473 -1 471 467 468 -1 471 468 472 -1 472 468 473 -1 469 478 481 -1 469 481 470 -1 475 471 472 -1 475 472 476 -1 476 472 473 -1 476 473 477 -1 481 480 477 -1 481 477 474 -1 479 475 476 -1 479 476 480 -1 480 476 477 -1 478 479 480 -1 478 480 481 -1 482 483 484 -1 482 484 485 -1 486 483 482 -1 486 482 487 -1 488 489 490 -1 488 490 491 -1 492 493 490 -1 492 490 489 -1 516 521 517 -1 517 515 520 -1 500 502 501 -1 500 503 502 -1 500 504 503 -1 500 505 504 -1 500 506 505 -1 507 506 500 -1 508 507 500 -1 509 508 500 -1 510 509 500 -1 511 510 500 -1 499 512 511 -1 499 511 500 -1 521 519 517 -1 512 499 513 -1 512 513 514 -1 514 513 515 -1 514 515 517 -1 517 498 516 -1 517 520 498 -1 519 518 517 -1'>
					<Coordinate containerField='coord' USE='polymsh_Pts'/>
				</IndexedFaceSet>
			</Shape>
		</Transform>
	</Scene>
</X3D>
